…
Understand joining operations:

```r
df %>%
  group_by(power_cond) %>%
  summarise(word_count = mean(qdap::wc(writing)),
            sd_wc = sd(qdap::wc(writing)),
            se_wc = sd(qdap::wc(writing))/sqrt(n())) %>%
  right_join(df) %>%
  select(id, power_cond, word_count, sd_wc, se_wc)
```

```
# A tibble: 98 x 5
      id power_cond word_count    sd_wc    se_wc
   <int>      <int>      <dbl>    <dbl>    <dbl>
 1     1          2   84.21951 44.82550 7.000567
 2     3          0   79.50000 49.67962 8.782199
 3     5          0   79.50000 49.67962 8.782199
 4     6          1   85.20000 46.19163 9.238326
 5     7          0   79.50000 49.67962 8.782199
 6     9          2   84.21951 44.82550 7.000567
 7    10          0   79.50000 49.67962 8.782199
 8    11          0   79.50000 49.67962 8.782199
 9    12          2   84.21951 44.82550 7.000567
10    13          2   84.21951 44.82550 7.000567
# ... with 88 more rows
```
…
